<?xml version="1.0" encoding="utf-8"?>
<!-- Generator: Adobe Illustrator 23.0.3, SVG Export Plug-In . SVG Version: 6.00 Build 0)  -->
<svg version="1.1" id="Layer_1" xmlns="http://www.w3.org/2000/svg" xmlns:xlink="http://www.w3.org/1999/xlink" x="0px" y="0px"
	 viewBox="0 0 12.9 12.9" style="enable-background:new 0 0 12.9 12.9;" xml:space="preserve">
<style type="text/css">
	.st0{fill-rule:evenodd;clip-rule:evenodd;}
	.st1{fill:#FF0000;}
</style>
<title>Asset 1</title>
<polygon class="st0" points="5.2,6.5 3.3,4.6 4.5,3.3 6.5,5.2 8.4,3.3 9.6,4.6 7.7,6.5 9.6,8.4 8.4,9.6 6.5,7.7 4.5,9.6 3.3,8.4 "/>
<path class="st1" d="M6.5,12.9C2.9,12.9,0,10,0,6.5C0,2.9,2.9,0,6.5,0c3.6,0,6.5,2.9,6.5,6.5C12.9,10,10,12.9,6.5,12.9z M6.5,1.3
	c-2.9,0-5.2,2.3-5.2,5.2c0,2.9,2.3,5.2,5.2,5.2c2.9,0,5.2-2.3,5.2-5.2C11.7,3.6,9.3,1.3,6.5,1.3z"/>
</svg>
